INDEX VERSION 1.131+C:\Users\pijus\OneDrive\Desktop\JAVA\.metadata\.plugins\org.eclipse.jdt.core
1392219179.index
2617347375.index
4067047868.index
1801676806.index
1866119374.index
3432972680.index
3950053629.index
637314237.index
476338320.index
3772749394.index
2181090611.index
2624993387.index
1378215967.index
4239503758.index
3407194813.index
2343993624.index
3582210249.index
3421685137.index
2547558084.index
2989391157.index
3307818403.index
2726494303.index
3147313438.index
